3 10 20
2 5 8
13 20 21
7 16 20
11 25 24
19 32 112
8 23 21
61 77 116
61 74 116
82 98 119
44 57 113
2 17 20
6 28 112
48 65 113
21 45 112
8 31 112
97 116 119
33 53 110
110 135 122
158 179 125
14 44 112
85 107 119
5 30 112
232 265 128
74 104 119
23 53 112
218 247 128
42 75 116
117 151 122
45 81 116
84 116 119
150 187 125
245 283 123
78 119 119
300 336 144
333 370 126
294 338 144
304 345 144
226 274 128
131 175 125
39 87 116
371 419 134
199 248 128
124 177 125
166 217 125
203 256 128
336 384 126
395 449 134
132 190 125
352 408 126
361 414 134
284 339 144
220 278 128
486 547 142
29 87 116
207 264 128
366 425 134
70 133 122
196 260 128
162 225 125
402 464 134
213 280 128
169 240 128
396 468 134
336 403 126
530 601 137
278 354 144
670 743 171
395 470 134
165 237 128
456 528 142
361 438 134
645 723 171
534 608 137
725 807 153
131 209 125
148 230 125
88 173 125
436 519 142
590 677 145
761 849 153
235 325 131
748 838 153
785 876 179
825 916 179
610 697 145
494 589 137
266 358 144
783 880 179
56 153 122
831 927 179
802 902 179
127 222 125
841 935 179
688 791 171
333 429 134
445 544 142
558 656 145
739 838 153
675 782 171
75 185 125
980 1085 169
429 538 142
77 189 125
858 963 179
711 826 153
384 497 142
991 1103 169
250 359 144
803 916 179
497 608 137
83 199 125
96 214 125
39 157 122
546 661 145
647 771 171
36 155 122
1 128 119
867 991 179
747 872 179
300 427 144
221 348 144
53 180 125
800 926 179
413 545 142
1037 1166 182
133 266 128
540 674 145
1017 1154 169
799 932 179
102 241 128
972 1109 169
1151 1287 182
141 284 128
1140 1279 182
426 571 142
808 950 179
734 873 179
565 713 171
729 870 153
332 475 134
77 221 125
375 525 142
631 775 171
898 1049 174
901 1053 174
1171 1320 177
216 367 144
1354 1509 172
1422 1580 172
1494 1651 167
545 699 145
1333 1495 172
640 797 171
1542 1701 180
1180 1339 177
1152 1309 182
1169 1331 177
621 784 171
1017 1180 182
136 301 128
1287 1455 177
238 407 144
1207 1375 177
800 974 179
1646 1817 180
1034 1201 182
610 782 171
1233 1411 177
1665 1844 180
196 373 144
277 458 144
1586 1761 180
1125 1307 182
1446 1628 172
283 468 144
1353 1538 172
1203 1385 177
353 538 142
1718 1907 180
1528 1714 180
226 408 144
12 201 125
221 414 144
1219 1407 177
1443 1630 172
1370 1565 172
473 665 145
1398 1593 172
485 679 145
1893 2092 175
408 601 142
367 563 142
269 464 144
201 403 144
928 1124 174
689 886 179
1080 1286 182
172 372 144
1302 1508 177
1017 1224 182
1944 2148 175
1283 1493 177
1233 1438 177
1703 1916 180
559 769 171
1769 1977 175
1478 1690 180
2009 2224 183
489 703 171
1849 2069 175
374 592 142
1936 2152 175
1942 2158 175
1166 1385 177
1088 1309 182
473 692 145
1642 1861 180
1782 2004 175
1024 1250 182
1216 1439 177
862 1092 179
1451 1679 180
482 713 171
271 498 144
586 820 171
956 1184 182
881 1118 174
1513 1751 180
1609 1839 180
349 583 142
681 922 179
1952 2185 175
272 512 144
359 600 142
1428 1664 172
708 950 179
718 958 179
2020 2266 183
231 476 144
1867 2111 175
226 473 144
1963 2213 170
848 1100 179
2230 2475 209
2183 2437 183
917 1169 182
1236 1491 177
1877 2132 175
