611670 288760 470
322140 406516 441
102166 813251 509
467334 911245 525
271247 833694 509
21919 478701 449
27206 747332 509
987801 905147 507
727312 87491 509
633877 448685 509
220646 861981 525
17388 474060 449
947866 634269 525
982790 599290 525
382629 68871 443
345160 663713 509
576861 304062 470
833371 494307 509
80957 437801 449
767697 885579 525
49931 616894 470
377119 428085 449
917888 704780 525
123580 821571 509
625727 269898 470
393548 91008 443
20721 684467 509
441702 687207 509
711737 452616 509
527189 798504 509
360079 497120 449
769826 325887 509
113509 25646 354
371796 881258 525
649798 770220 504
499779 856940 525
86175 847774 525
303139 84265 443
832329 224922 509
255699 850106 525
317205 786784 509
251798 72386 443
403547 307485 441
661734 249094 509
219260 199055 386
857373 390086 525
80889 775846 509
555607 516886 452
162088 913138 525
695506 472969 509
568726 401488 470
464446 725439 509
522337 2462 470
519120 558801 452
424861 196756 449
409292 562434 470
680226 882297 525
705291 595660 509
282070 827781 509
354678 477741 449
341935 516186 470
349151 494875 449
928596 123182 525
869710 442247 525
816671 766936 468
696232 326405 509
1499 838664 525
817029 41706 509
127275 177386 383
854654 304325 525
296748 87714 443
136075 878264 525
83296 716055 509
978570 660062 525
950007 98519 525
37059 502332 449
695439 272872 509
364265 751050 509
991972 207276 525
172045 347425 443
560285 940108 525
150321 2445 375
32195 248050 443
599552 390673 470
94195 363696 443
563255 529571 452
75293 749327 509
609077 511623 470
745295 700058 504
900033 538751 525
723452 597432 509
721954 771999 468
562472 963649 525
688870 854166 525
269123 76957 443
434940 89085 449
750254 800317 468
719715 168416 509
431818 448359 400
522954 25371 470
88505 971670 525
885836 864424 432
742933 472889 509
967365 667136 525
345833 85608 443
27909 506357 449
832471 545001 509
826225 814614 450
65616 358147 443
222009 347195 443
121593 342397 443
612878 956390 525
353558 441728 449
202925 450634 449
674898 153875 509
999324 750710 525
545671 605138 452
864189 274953 525
216346 295118 443
910767 986328 507
885596 800216 525
26234 816515 509
562705 272607 470
327742 245579 407
590180 400494 470
914088 660562 525
978465 605779 525
362220 742296 509
932181 646928 525
36010 536943 470
206092 467618 449
424120 57278 449
219061 85885 386
404457 228450 443
175547 553824 470
544607 743904 509
796706 534521 509
290832 929410 525
646976 840701 525
172609 26609 383
457054 358737 449
955359 402187 525
290467 141955 443
10930 64831 340
878466 98837 525
43549 529249 470
956783 624513 525
708397 505120 509
977799 728071 525
590614 108473 470
142995 693569 509
474421 294039 449
303063 79202 443
825285 989311 525
906883 906968 246
932390 974528 507
845563 224255 525
214388 897523 525
734062 829114 468
778302 938389 525
900460 842621 445
439623 546070 470
111689 984544 525
61040 357535 443
854623 862649 388
247941 879878 525
812690 321337 509
150694 766670 509
30701 911892 525
366917 552113 470
144408 844488 525
711341 520057 509
966314 361174 525
926535 979597 507
665564 329448 509
244689 595023 470
757273 997610 525
78790 575062 470
125455 275930 443
20979 464860 449
343726 611770 470
756498 3872 509
629279 512190 509
463577 13785 449
868142 34095 525
762762 562873 509
283514 109904 443
303631 716599 509
484052 405776 449
632436 29044 509
825228 519810 509
71226 555727 470
244426 719208 509
957057 575568 525
989261 88277 525
739426 398263 509
948612 913202 507
114611 603031 470
617154 364940 470
587621 805708 509
76744 58094 335
595548 583353 434
761748 861580 525
600568 499031 470
190508 415920 449
366470 264151 441
291358 172384 443
969559 951728 414
429201 410809 418
962867 831154 525
747425 615751 509
512098 833528 509
979953 794747 525
252336 876359 525
459556 807808 509
76500 277394 443
651051 543871 509
59671 269557 443
171844 827775 509
247831 192493 443
927252 270451 525
95243 280895 443
684404 885345 525
921572 95780 525
135997 185710 383
878062 552146 525
263997 650240 509
561439 184848 470
603433 898648 525
594943 764318 509
827672 654091 504
207739 624712 470
929153 586019 525
87168 99267 333
153324 424797 449
552692 271177 470
758545 318616 509
406059 842979 525
621070 263526 470
649113 303443 509
681675 579026 509
628870 728171 504
239367 824516 509
68856 488610 449
137603 256009 443
876394 863865 432
959743 907823 507
577438 50740 470
453027 650654 509
723699 349590 509
