234 38646 324
421569 277328 449
560624 881478 525
899373 585366 525
373313 325598 441
20543 284196 443
988654 722618 525
762224 277021 509
642814 211084 509
148361 871828 525
3310 964355 525
998950 262783 525
976421 531766 525
745265 565270 509
501923 778573 509
274123 872189 525
700758 34930 509
432514 368731 449
53231 275144 443
822733 162399 509
124095 904153 525
987640 504555 525
109779 435096 449
626578 370781 509
898568 907152 445
527963 630650 509
984257 581229 525
884166 407912 525
108189 441161 449
480476 944597 525
910004 561014 525
189171 809273 509
23607 916761 525
613114 670226 509
681491 738936 504
595634 682177 509
217513 347254 443
291809 559203 470
931064 189904 525
905814 434683 525
528139 786759 509
246120 644752 509
926823 429145 525
688601 959475 525
714414 685480 504
552841 152403 470
293586 78870 443
988155 573191 525
50245 603495 470
319049 835153 509
632103 91435 509
729994 15430 509
540129 150440 470
661251 637699 429
638360 195626 509
326731 746699 509
54573 451831 449
613238 307322 470
585554 33487 470
271776 865941 525
425708 372591 449
755943 11899 509
296918 879272 525
902884 921635 476
384669 134117 443
93013 663791 509
954020 611242 525
191440 657989 509
128278 101154 354
718256 181223 509
73198 540233 470
315175 313797 340
286780 856517 525
548008 417499 470
351387 786604 509
332793 307825 384
528116 924045 525
624074 561502 447
629691 720716 504
668693 448579 509
146170 506677 449
423781 566807 470
114437 469878 449
356305 255566 441
959470 26800 525
165655 829887 509
892250 740344 525
880509 861060 432
51281 426214 449
413247 99501 449
13882 190432 383
342695 656129 509
891608 272257 525
7070 695142 509
695905 964177 525
718303 33249 509
882943 541893 525
711581 575243 509
604469 484330 470
581460 783463 509
334152 135622 443
594240 462706 470
941967 673704 525
340569 729177 509
924793 788220 525
787882 273684 509
281387 298253 389
616495 394829 470
558534 342748 470
6603 745784 509
610208 138888 470
788109 152081 509
735207 732863 349
980554 127793 525
616457 187948 470
789014 248443 509
720814 374489 509
653869 652658 385
813136 97499 509
27806 992544 525
633697 6368 509
457963 633259 509
49920 610090 470
139365 807892 509
121486 310930 443
233398 883571 525
484638 633483 509
874252 49830 525
508386 587253 470
253301 932205 525
261599 619334 470
889836 730258 525
265475 624448 470
366045 331526 441
720604 481892 509
512769 777523 509
140321 547794 470
965311 675798 525
241607 289344 407
530003 603554 452
763227 992601 525
138068 403623 443
786733 735228 468
818946 622382 509
280996 812844 509
863750 336247 525
476605 250778 449
689616 617077 509
604944 573146 434
663579 618860 509
705897 181871 509
534111 448167 470
625523 299214 470
405336 344297 441
674948 128944 509
455008 580193 470
396351 131817 443
349421 388910 423
87256 426409 449
194049 332396 443
944018 933203 507
925887 558099 525
242569 393924 441
991329 699122 525
294949 871418 525
181987 428921 449
55785 197263 383
847264 178866 525
102748 797405 509
411972 523384 470
418728 570029 470
751130 415220 509
207717 216716 386
270046 692779 509
822022 230060 509
878294 94503 525
700701 915671 525
667661 76095 509
821855 939785 525
85003 656195 509
99977 141466 354
897928 425931 525
684044 377283 509
352207 25050 443
927864 84793 525
513541 876686 525
874773 619729 525
181884 904519 525
372910 479294 449
226649 389942 443
802469 300472 509
805944 279164 509
703099 460594 509
901134 455059 525
14662 876949 525
575056 548270 421
302044 238364 407
98260 685691 509
149145 301280 443
255964 663856 509
893958 196304 525
231443 634960 509
147670 669739 509
350478 696403 509
639613 837777 504
836584 772708 468
198951 876344 525
261494 224408 443
552339 608343 434
422115 357901 449
608228 786990 509
994724 494165 525
157033 395160 443
742322 544140 509
941686 207094 525
852994 154764 525
346057 910518 525
6031 455041 449
414710 87885 449
214777 661505 509
538425 23251 470
393097 128395 443
59391 766922 509
83525 141853 354
467203 627131 509
750385 24887 509
123270 890832 525
494790 186092 449
764734 386837 509
631796 822405 504
902499 117340 525
436567 938694 525
686883 458348 509
998580 23905 525
456353 979242 525
697601 899619 525
400449 406959 405
377896 503327 449
513925 450222 470
122638 736483 509
156060 695490 509
794451 722226 468
855110 906879 445
403953 757120 509
791047 752109 468
125212 727822 509
783812 983801 525
549656 474556 470
480253 700636 509
570356 958510 525
1 10 20
100 200 125
201 210 89
900 1000 174
